<?xml version="1.0" encoding="utf-8"?>
<!-- Generator: Adobe Illustrator 16.0.0, SVG Export Plug-In . SVG Version: 6.00 Build 0)  -->
<!DOCTYPE svg PUBLIC "-//W3C//DTD SVG 1.1//EN" "http://www.w3.org/Graphics/SVG/1.1/DTD/svg11.dtd">
<svg version="1.1" id="Capa_1" xmlns="http://www.w3.org/2000/svg" xmlns:xlink="http://www.w3.org/1999/xlink" x="0px" y="0px"
	 width="54.75px" height="20.167px" viewBox="0 0 54.75 20.167" enable-background="new 0 0 54.75 20.167" xml:space="preserve">
<g>
	<g>
		<path fill="#906420" d="M9.235,1.035c0.378-0.379,0.974-0.379,1.353,0c0.366,0.366,0.366,0.975,0,1.34L3.725,9.238h22.648
			c0.527,0,0.961,0.418,0.961,0.947c0,0.527-0.434,0.961-0.961,0.961H3.725l6.863,6.852c0.366,0.379,0.366,0.987,0,1.353
			c-0.379,0.38-0.975,0.38-1.353,0l-8.489-8.489c-0.366-0.363-0.366-0.974,0-1.338L9.235,1.035z M9.235,1.035"/>
	</g>
</g>
<g>
	<g>
		<path fill="#906420" d="M45.433,19.352c-0.378,0.379-0.974,0.379-1.353,0c-0.366-0.367-0.366-0.975,0-1.341l6.863-6.863H28.295
			c-0.527,0-0.961-0.419-0.961-0.947c0-0.527,0.434-0.961,0.961-0.961h22.648L44.08,2.389c-0.366-0.379-0.366-0.988,0-1.354
			c0.379-0.38,0.975-0.38,1.353,0l8.489,8.488c0.365,0.365,0.365,0.975,0,1.34L45.433,19.352z M45.433,19.352"/>
	</g>
</g>
<circle fill="#906420" cx="46.61" cy="-56.872" r="31.5"/>
</svg>
